{
  "ABC.es": {
    "domain": "abc.es",
    "allow_cookies": 1,
    "block_regex": "(\\.evolok\\.net\\/|cdn\\.ampproject\\.org\\/v\\d\\/amp-(access|(sticky-)?ad)-.+\\.js)",
    "useragent": "googlebot",
    "amp_redirect": ".cierre-suscripcion:not([style=\"display: none;\"]"
  },
  "Aftonbladet": {
    "domain": "aftonbladet.se",
    "allow_cookies": 1,
    "useragent": "googlebot"
  },
  "Berliner Zeitung": {
    "domain": "berliner-zeitung.de",
    "allow_cookies": 1,
    "block_regex": "cdn\\.ampproject\\.org\\/v\\d\\/amp-(ad|fx-flying-carpet|subscriptions)-.+\\.js"
  },
  "Investors' Chronicle": {
    "allow_cookies": 1,
    "domain": "investorschronicle.co.uk",
    "referer": "google"
  },
  "Nürnberger Nachrichten": {
    "domain": "nn.de",
    "block_regex": "(cdn\\.cxense\\.com\\/|\\.piano\\.io\\/)"
  },
  "Outlook India": {
    "domain": "outlookindia.com",
    "allow_cookies": 1,
    "ld_json": "div.paywall|div#articleBody",
    "new_site": 1
  },
  "Vogue Business": {
    "allow_cookies": 1,
    "domain": "voguebusiness.com",
    "useragent": "googlebot",
    "block_regex": "cdn\\.ampproject\\.org\\/v\\d\\/amp-(ad|subscriptions)-.+\\.js",
    "amp_redirect": "div[class*=\"PaywallInlineBarrier\"]",
    "amp_unhide": 1,
    "new_site": 1
  }
}
